Kapitel 2 Beskrivande statistik | R-anvisningar till Grundläggande statistik
…
2.1 Repetition från datorövning 1

När man arbetar i R är det klokt att använda ett avancerat gränssnitt som RStudio och att skriva sin kod i ett separat skript. I RStudio kan man starta ett nytt skript genom Ctrl + Shift + N.

Mycket funktionalitet i R ligger i tilläggspaket (Packages). Paket måste installeras första gången de används och laddas varje session de används, t.ex.

# install.packages("tidyverse")        # Installera tidyverse (behövs ej om redan gjort)
library(tidyverse)                     # Ger ett felmeddelande om paketet inte installerats

Data läses in med import-funktioner där valet av funktion beror på typen av fil. Importerad data sparas som ett objekt i R genom assign-pilen <-.

dat <- read_csv("https://raw.githubusercontent.com/adamflr/ST0060/main/Data/Spotify_data.csv")
dat                                              # Skriv ut objektet dat

## # A tibble: 89,105 × 24
##    artist_name album_name  track_number track_name album_type album_release_date
##    <chr>       <chr>              <dbl> <chr>      <chr>      <chr>             
##  1 100 gecs    1000 gecs …            1 money mac… album      2020-07-10        
##  2 100 gecs    1000 gecs …            2 ringtone … album      2020-07-10        
##  3 100 gecs    1000 gecs …            3 745 stick… album      2020-07-10        
##  4 100 gecs    1000 gecs …            4 gec 2 Ü (… album      2020-07-10        
##  5 100 gecs    1000 gecs …            5 hand crus… album      2020-07-10        
##  6 100 gecs    1000 gecs …            6 800db clo… album      2020-07-10        
##  7 100 gecs    1000 gecs …            7 stupid ho… album      2020-07-10        
##  8 100 gecs    1000 gecs …            8 ringtone … album      2020-07-10        
##  9 100 gecs    1000 gecs …            9 xXXi_wud_… album      2020-07-10        
## 10 100 gecs    1000 gecs …           10 745 stick… album      2020-07-10        
## # ℹ 89,095 more rows
## # ℹ 18 more variables: album_release_year <dbl>, danceability <dbl>,
## #   energy <dbl>, key <dbl>, loudness <dbl>, mode <dbl>, speechiness <dbl>,
## #   acousticness <dbl>, instrumentalness <dbl>, liveness <dbl>, valence <dbl>,
## #   tempo <dbl>, time_signature <dbl>, explicit <lgl>, type <chr>,
## #   key_name <chr>, mode_name <chr>, key_mode <chr>
…
gapminder <- read_excel("C:/Users/User_name/Downloads/Gapminder.xlsx")    # Läs in från en lokal excelfil
gapminder                                                                 # Skriv ut objektet gapminder

Uppgift 2.2  (Importera från excelfil) Var ligger den nedladdade filen Gapminder.xlsx? Gör lämplig ändring i koden ovan för att läsa in data från den filen. Notera att R använder högerlutande snedstreck /, så om en kopierad sökväg har vänster-snedstreck måste de ändras. Kontrollera att datan blivit korrekt inläst genom att köra objektnamnet gapminder.

En R-session har alltid en grundmapp, ett Working directory. Man kan se vilken mapp det är genom att köra

getwd()                                # Ange working directory

En filsökväg kan anges antingen som en fullständig sökväg, som ovan, eller relativt working directory. Om man till exempel har en fil Gapminder.xlsx som ligger i en mapp Data som i sin tur ligger i working directory, kan man importera data från filen med

gapminder <- read_excel("Data/Gapminder.xlsx")             # Läs in från en lokal excelfil (relativt wd)
gapminder                                                  # Skriv ut objektet gapminder

## # A tibble: 1,704 × 6
##    country     continent  year lifeExp      pop gdpPercap
##    <chr>       <chr>     <dbl>   <dbl>    <dbl>     <dbl>
##  1 Afghanistan Asia       1952    28.8  8425333      779.
##  2 Afghanistan Asia       1957    30.3  9240934      821.
##  3 Afghanistan Asia       1962    32.0 10267083      853.
##  4 Afghanistan Asia       1967    34.0 11537966      836.
##  5 Afghanistan Asia       1972    36.1 13079460      740.
##  6 Afghanistan Asia       1977    38.4 14880372      786.
##  7 Afghanistan Asia       1982    39.9 12881816      978.
##  8 Afghanistan Asia       1987    40.8 13867957      852.
##  9 Afghanistan Asia       1992    41.7 16317921      649.
## 10 Afghanistan Asia       1997    41.8 22227415      635.
## # ℹ 1,694 more rows
…
2.3 Ändra och skapa nya kolumner med mutate

Variabler kan omräknas och nya variabler kan skapas med mutate-funktionen. I gapminder-datan finns bnp per capita. Om man vill ha nationell BNP kan man skapa en ny kolumn och beräkna den som bnp per capita gånger populationen.

gapminder <- gapminder %>%             # Ta datan, och sen
  mutate(gdp = gdpPercap * pop)        # Beräkna en ny kolumn som bnp per capita (bnpPercap) gånger befolkningen (pop)

Den inledande delen med gapminder <- gör så att utfallet av beräkningen sparas i objektet gapminder.
Vi kan skriva ut objektet och se resultatet av beräkningen:

gapminder %>% select(gdpPercap, pop, gdp)        # Ta datan och sen välj tre kolumner

## # A tibble: 1,704 × 3
##    gdpPercap      pop          gdp
##        <dbl>    <dbl>        <dbl>
##  1      779.  8425333  6567086330.
##  2      821.  9240934  7585448670.
##  3      853. 10267083  8758855797.
##  4      836. 11537966  9648014150.
##  5      740. 13079460  9678553274.
##  6      786. 14880372 11697659231.
##  7      978. 12881816 12598563401.
##  8      852. 13867957 11820990309.
##  9      649. 16317921 10595901589.
## 10      635. 22227415 14121995875.
## # ℹ 1,694 more rows

Om man vill skapa en kolumn med mellanrum i namnet måste man skriva namnet inom backticks ` för att ange att namnet ska tolkas som en enhet. Jag rekommenderar att undvika mellanrum i kolumnnamn och istället använda stora bokstäver eller understreck för ett nytt ord (NationalGDP eller National_GDP).

gapminder %>% 
  mutate(`National GDP` = gdpPercap * pop)

## # A tibble: 1,704 × 8
##    country     continent  year lifeExp      pop gdpPercap     gdp `National GDP`
##    <chr>       <chr>     <dbl>   <dbl>    <dbl>     <dbl>   <dbl>          <dbl>
##  1 Afghanistan Asia       1952    28.8  8425333      779. 6.57e 9    6567086330.
##  2 Afghanistan Asia       1957    30.3  9240934      821. 7.59e 9    7585448670.
##  3 Afghanistan Asia       1962    32.0 10267083      853. 8.76e 9    8758855797.
##  4 Afghanistan Asia       1967    34.0 11537966      836. 9.65e 9    9648014150.
##  5 Afghanistan Asia       1972    36.1 13079460      740. 9.68e 9    9678553274.
##  6 Afghanistan Asia       1977    38.4 14880372      786. 1.17e10   11697659231.
##  7 Afghanistan Asia       1982    39.9 12881816      978. 1.26e10   12598563401.
##  8 Afghanistan Asia       1987    40.8 13867957      852. 1.18e10   11820990309.
##  9 Afghanistan Asia       1992    41.7 16317921      649. 1.06e10   10595901589.
## 10 Afghanistan Asia       1997    41.8 22227415      635. 1.41e10   14121995875.
## # ℹ 1,694 more rows
…
Uppgift 2.8  (Graf för livslängd) Gör lämpliga ändringar i det sista exempel för att istället beräkna spridningsmått för livslängd.

Vi avslutar med tre vanliga illustrationer av vetenskaplig data - ett linjediagram med felstaplar, ett stapeldiagram med felstaplar, och ett lådagram. För linjediagrammet beräknar vi medelvärdet och spridningsmått för bnp över år och kontinent. Som spridningsmått använder vi medelfelet, vilket beräknas som standardavvikelse delat på roten ur antalet observationer.

dat_sum <- gapminder %>%                         # Ta datan, och sen
  group_by(year, continent) %>%                  # grupper efter år och kontinent, och sen
  summarise(Mean = mean(gdpPercap),              # summera med medelvärde
            SE = sd(gdpPercap) / sqrt(n()))      # och medelfel (standardavvikelsen delat på roten ur n)
dat_sum

## # A tibble: 60 × 4
## # Groups:   year [12]
##     year continent   Mean    SE
##    <dbl> <chr>      <dbl> <dbl>
##  1  1952 Africa     1253.  136.
##  2  1952 Americas   4079.  600.
##  3  1952 Asia       5195. 3244.
##  4  1952 Europe     5661.  569.
##  5  1952 Oceania   10298.  258.
##  6  1957 Africa     1385.  157.
##  7  1957 Americas   4616.  662.
##  8  1957 Asia       5788. 3396.
##  9  1957 Europe     6963.  671.
## 10  1957 Oceania   11599.  649.
## # ℹ 50 more rows
…
