3 Ett stickprov av normalfördelad data | R-anvisningar till Grundläggande statistik
…
Beskrivande mått sammanfattas ofta i någon enkel vetenskaplig graf. Två vanliga val är lådagrammet, som illustrerar kvartiler och möjliga extremvärden, och stapeldiagrammet med felstaplar. Vi ger först ett exempel på ett lådagram över livslängd per kontinent uppdelat efter år.

ggplot(gapminder, aes(lifeExp, continent, fill = continent)) +
  geom_boxplot() +
  facet_wrap(~ year)

Därefter ett exempel på ett stapeldiagram med felstaplar för samma data. Felstapeln ges av standardavvikelsen.

dat_sum <- gapminder %>% 
  group_by(continent, year) %>% 
  summarise(Mean = mean(lifeExp),
            SD = sd(lifeExp))
dat_sum

## # A tibble: 60 × 4
## # Groups:   continent [5]
##    continent  year  Mean    SD
##    <fct>     <int> <dbl> <dbl>
##  1 Africa     1952  39.1  5.15
##  2 Africa     1957  41.3  5.62
##  3 Africa     1962  43.3  5.88
##  4 Africa     1967  45.3  6.08
##  5 Africa     1972  47.5  6.42
##  6 Africa     1977  49.6  6.81
##  7 Africa     1982  51.6  7.38
##  8 Africa     1987  53.3  7.86
##  9 Africa     1992  53.6  9.46
## 10 Africa     1997  53.6  9.10
## # ℹ 50 more rows
…
