5 Test för två stickprov | R-anvisningar till Grundläggande statistik
…
Finns det några synbara skillnader mellan behandlingar?

Uppgift 5.18  (Po-ta-toes-test) Beräkna ett chi-två-test på potatisdatan för att se om det finns färgskillnader mellan behandlingarna. Formulera tydliga hypoteser och ge ett tydligt svar.

dat_pot[,-1]
chisq.test(___)

Uppgift 5.19  (Hemmasegrar över årtionden) Vi vill undersöka om andelen hemmasegrar i herrallsvenskan förändrats över tid. Vi importerar data över matchresultat sedan 1920-talet.

dat_alls <- read_csv("https://raw.githubusercontent.com/adamflr/ST0060/main/Data/Allsvenskan%2C%20herrar%2C%201924-2020.csv")
dat_alls

## # A tibble: 15,236 × 9
##    Hemmalag     Bortalag Hemmamål Bortamål Publik Domare Arena Datum      Säsong
##    <chr>        <chr>       <dbl>    <dbl>  <dbl> <chr>  <chr> <date>     <chr> 
##  1 Örgryte      Hammarby        5        1   4000 Carl … <NA>  1924-08-03 1924_…
##  2 IFK Norrköp… Landskr…        0        1   1500 Ivar … <NA>  1924-08-03 1924_…
##  3 IFK Malmö    IFK Göt…        1        1   3276 Johan… <NA>  1924-08-03 1924_…
##  4 Helsingborg  Gais            1        2   3000 Carl … <NA>  1924-08-03 1924_…
##  5 Eskilstuna   Sleipner        1        3    700 Oscar… <NA>  1924-08-03 1924_…
##  6 AIK          Västerå…        5        1   2000 Arne … <NA>  1924-08-03 1924_…
##  7 IFK Göteborg Gais            1        3   3600 Sigfr… <NA>  1924-08-08 1924_…
##  8 Västerås IK  Eskilst…        0        1    600 Berti… <NA>  1924-08-10 1924_…
##  9 Sleipner     Örgryte         0        1   2280 Ernfr… <NA>  1924-08-10 1924_…
## 10 Landskrona   IFK Göt…        0        4   1000 Gusta… <NA>  1924-08-10 1924_…
## # ℹ 15,226 more rows
…
